<?xml version="1.0" encoding="iso-8859-1"?>
<!-- Generator: Adobe Illustrator 22.0.1, SVG Export Plug-In . SVG Version: 6.00 Build 0)  -->
<svg version="1.1" id="Layer_1" xmlns="http://www.w3.org/2000/svg" xmlns:xlink="http://www.w3.org/1999/xlink" x="0px" y="0px"
	 viewBox="0 0 30 30" style="enable-background:new 0 0 30 30;" xml:space="preserve">
<g>
	<path style="fill:#FFFFFF;" d="M29.329,23.408h-1.433c-0.863-2.058-0.863-4.544,0-6.602h1.433c0.207,0,0.374-0.167,0.374-0.374
		c0-0.207-0.167-0.374-0.374-0.374h-2.387c0.764-1.647,0.698-3.558-0.201-5.158c0.831-1.531,0.791-3.377-0.122-4.877
		c-0.068-0.112-0.189-0.18-0.32-0.18h-2.577c-0.207,0-0.374,0.168-0.374,0.374c0,0.207,0.167,0.374,0.374,0.374h2.36
		c0.671,1.236,0.672,2.717,0,3.953h-8.298c0.401-0.908,0.519-1.917,0.329-2.903c-0.039-0.203-0.236-0.336-0.438-0.297
		c-0.203,0.039-0.336,0.235-0.297,0.439c0.182,0.946,0.031,1.919-0.427,2.762h-1.142c0.559-1.261,0.559-2.692,0-3.953h1.141
		c0.047,0.087,0.092,0.174,0.132,0.263c0.063,0.138,0.199,0.22,0.341,0.22c0.052,0,0.105-0.011,0.155-0.034
		c0.173-0.079,0.256-0.272,0.202-0.449h4.743c0.207,0,0.374-0.168,0.374-0.374c0-0.207-0.168-0.374-0.374-0.374H4.426
		c-0.207,0-0.374,0.168-0.374,0.374c0,0.207,0.167,0.374,0.374,0.374H5.64c0.672,1.236,0.672,2.716,0,3.953H0.671
		c-0.207,0-0.374,0.167-0.374,0.374c0,0.207,0.168,0.374,0.374,0.374h1.462c0.823,1.487,0.823,3.277,0,4.764H0.671
		c-0.207,0-0.374,0.168-0.374,0.374c0,0.207,0.168,0.374,0.374,0.374h2.477c-0.892,2.264-0.815,4.947,0.233,7.138
		c0.062,0.13,0.193,0.213,0.338,0.213h25.611c0.207,0,0.374-0.168,0.374-0.374C29.704,23.576,29.536,23.408,29.329,23.408
		L29.329,23.408z M26.74,17.975h-1.3c-0.207,0-0.374,0.168-0.374,0.374c0,0.207,0.168,0.374,0.374,0.374h1.161
		c-0.05,0.351-0.082,0.706-0.094,1.062h-4.184c-0.207,0-0.374,0.168-0.374,0.374c0,0.207,0.168,0.374,0.374,0.374h4.188
		c0.016,0.356,0.05,0.711,0.105,1.062h-2.375c-0.207,0-0.374,0.168-0.374,0.374c0,0.207,0.168,0.374,0.374,0.374h2.524
		c0.087,0.362,0.196,0.717,0.326,1.062h-8.863c-0.144-0.344-0.264-0.699-0.36-1.062h5.215c0.207,0,0.374-0.168,0.374-0.374
		c0-0.207-0.167-0.374-0.374-0.374h-5.377c-0.06-0.351-0.098-0.706-0.116-1.062h3.255c0.207,0,0.374-0.167,0.374-0.374
		c0-0.207-0.167-0.374-0.374-0.374h-3.259c0.013-0.356,0.046-0.711,0.102-1.062h6.673c0.207,0,0.374-0.167,0.374-0.374
		c0-0.207-0.167-0.374-0.374-0.374h-6.52c0.1-0.4,0.229-0.792,0.387-1.169h8.863C26.948,17.186,26.831,17.577,26.74,17.975
		L26.74,17.975z M16.95,23.408c-0.565-1.349-0.768-2.92-0.57-4.452c0.026-0.205-0.118-0.393-0.324-0.419
		c-0.205-0.026-0.393,0.119-0.419,0.324c-0.2,1.553-0.019,3.146,0.508,4.548h-1.512c-0.863-2.058-0.863-4.544,0-6.602h1.514
		c-0.113,0.299-0.212,0.607-0.293,0.922c-0.051,0.2,0.07,0.404,0.27,0.456c0.031,0.008,0.063,0.012,0.093,0.012
		c0.167,0,0.319-0.112,0.362-0.282c0.098-0.383,0.222-0.754,0.37-1.108h0.473c-0.785,2.082-0.785,4.519,0,6.602H16.95z
		 M12.64,11.293h0.44c0.823,1.487,0.823,3.277,0,4.764h-0.44C13.343,14.543,13.343,12.807,12.64,11.293L12.64,11.293z M14.719,6.592
		h0.257c0.671,1.236,0.671,2.717,0,3.953h-0.257C15.278,9.283,15.278,7.853,14.719,6.592L14.719,6.592z M13.919,11.293h1.478
		c0.823,1.487,0.823,3.277,0,4.764h-1.478C14.621,14.543,14.621,12.807,13.919,11.293L13.919,11.293z M26.104,11.293
		c0.823,1.487,0.823,3.277,0,4.764h-9.868c0.702-1.514,0.702-3.251,0-4.764C16.236,11.293,26.104,11.293,26.104,11.293z
		 M6.777,9.627h4.881c0.207,0,0.374-0.167,0.374-0.374c0-0.207-0.167-0.374-0.374-0.374H6.884C6.899,8.636,6.896,8.392,6.875,8.15
		H9.74c0.207,0,0.374-0.168,0.374-0.374c0-0.207-0.167-0.374-0.374-0.374H6.751C6.684,7.125,6.591,6.855,6.474,6.592h7.411
		c0.141,0.26,0.253,0.532,0.335,0.809h-3.202c-0.207,0-0.374,0.167-0.374,0.374c0,0.207,0.168,0.374,0.374,0.374h3.35
		c0.025,0.242,0.027,0.486,0.009,0.729h-1.122c-0.207,0-0.374,0.168-0.374,0.374c0,0.207,0.168,0.374,0.374,0.374h0.995
		c-0.084,0.315-0.206,0.623-0.365,0.917H6.474C6.606,10.247,6.707,9.94,6.777,9.627L6.777,9.627z M11.801,11.293
		c0.11,0.198,0.205,0.402,0.285,0.609H3.213c-0.068-0.206-0.149-0.41-0.241-0.609H11.801z M3.24,15.368h1.426
		c0.207,0,0.374-0.167,0.374-0.374c0-0.207-0.167-0.374-0.374-0.374H3.42c0.034-0.202,0.057-0.406,0.069-0.609H9.42
		c0.207,0,0.374-0.168,0.374-0.374c0-0.207-0.167-0.374-0.374-0.374H3.484c-0.015-0.204-0.042-0.407-0.079-0.61h8.905
		c0.043,0.202,0.073,0.405,0.09,0.61h-1.741c-0.207,0-0.374,0.167-0.374,0.374c0,0.207,0.167,0.374,0.374,0.374h1.748
		c-0.014,0.204-0.041,0.408-0.081,0.609H6.024c-0.207,0-0.374,0.168-0.374,0.374c0,0.207,0.167,0.374,0.374,0.374h6.092
		c-0.087,0.235-0.192,0.466-0.315,0.689H2.972C3.077,15.832,3.166,15.602,3.24,15.368L3.24,15.368z M3.958,16.807H4.32
		c-0.239,0.634-0.408,1.306-0.502,2.008c-0.027,0.205,0.116,0.393,0.321,0.421c0.017,0.002,0.034,0.003,0.05,0.003
		c0.185,0,0.346-0.137,0.37-0.325c0.1-0.744,0.29-1.451,0.565-2.107h8.702c-0.785,2.082-0.785,4.519,0,6.602H5.125
		c-0.392-0.938-0.613-1.994-0.641-3.071c-0.005-0.207-0.177-0.369-0.384-0.365c-0.207,0.006-0.37,0.177-0.365,0.384
		c0.027,1.06,0.228,2.104,0.585,3.052H3.958C3.052,21.351,3.052,18.864,3.958,16.807L3.958,16.807z"/>
</g>
</svg>
