<?xml version="1.0" encoding="iso-8859-1"?>
<!-- Generator: Adobe Illustrator 22.0.1, SVG Export Plug-In . SVG Version: 6.00 Build 0)  -->
<svg version="1.1" id="Layer_1" xmlns="http://www.w3.org/2000/svg" xmlns:xlink="http://www.w3.org/1999/xlink" x="0px" y="0px"
	 viewBox="0 0 30 30" style="enable-background:new 0 0 30 30;" xml:space="preserve">
<g>
	<path style="fill:#FFFFFF;" d="M5.708,1.005c-1.955,0-3.546,1.591-3.546,3.546c0,1.955,1.591,3.546,3.546,3.546
		c1.955,0,3.546-1.591,3.546-3.546C9.254,2.596,7.663,1.005,5.708,1.005L5.708,1.005z M5.708,6.978
		c-1.336,0-2.421-1.085-2.421-2.421s1.086-2.421,2.421-2.421c1.335,0,2.421,1.085,2.421,2.421S7.043,6.978,5.708,6.978L5.708,6.978z
		"/>
	<path style="fill:#FFFFFF;" d="M5.708,11.457c-1.955,0-3.546,1.591-3.546,3.546c0,1.955,1.591,3.546,3.546,3.546
		c1.955,0,3.546-1.591,3.546-3.546C9.254,13.048,7.663,11.457,5.708,11.457L5.708,11.457z M5.708,17.424
		c-1.336,0-2.421-1.086-2.421-2.421s1.086-2.421,2.421-2.421c1.335,0,2.421,1.085,2.421,2.421S7.043,17.424,5.708,17.424
		L5.708,17.424z"/>
	<path style="fill:#FFFFFF;" d="M5.708,21.902c-1.955,0-3.546,1.591-3.546,3.546c0,1.955,1.591,3.546,3.546,3.546
		c1.955,0,3.546-1.591,3.546-3.546C9.254,23.493,7.663,21.902,5.708,21.902L5.708,21.902z M5.708,27.875
		c-1.336,0-2.421-1.085-2.421-2.421s1.086-2.421,2.421-2.421c1.335,0,2.421,1.086,2.421,2.421
		C8.129,26.784,7.043,27.875,5.708,27.875L5.708,27.875z"/>
	<path style="fill:#FFFFFF;" d="M27.838,4.364c0-0.313-0.25-0.563-0.563-0.563H13.068c-0.313,0-0.562,0.25-0.562,0.563
		c0,0.313,0.25,0.562,0.562,0.562h14.208C27.588,4.926,27.838,4.677,27.838,4.364L27.838,4.364z"/>
	<path style="fill:#FFFFFF;" d="M12.875,14.44c-0.313,0-0.563,0.25-0.563,0.562c0,0.313,0.25,0.563,0.563,0.563h14.208
		c0.312,0,0.562-0.25,0.562-0.563c0-0.312-0.25-0.562-0.562-0.562H12.875z"/>
	<path style="fill:#FFFFFF;" d="M27.645,25.448c0-0.312-0.25-0.562-0.562-0.562H12.875c-0.313,0-0.563,0.25-0.563,0.562
		c0,0.313,0.25,0.563,0.563,0.563h14.208C27.395,26.011,27.645,25.761,27.645,25.448L27.645,25.448z"/>
</g>
</svg>
