<?xml version="1.0" encoding="utf-8"?>
<!-- Generator: Adobe Illustrator 16.0.4, SVG Export Plug-In . SVG Version: 6.00 Build 0)  -->
<!DOCTYPE svg PUBLIC "-//W3C//DTD SVG 1.0//EN" "http://www.w3.org/TR/2001/REC-SVG-20010904/DTD/svg10.dtd">
<svg version="1.0" id="Layer_1" xmlns="http://www.w3.org/2000/svg" xmlns:xlink="http://www.w3.org/1999/xlink" x="0px" y="0px"
   width="30px" height="30px" viewBox="0 0 30 30" enable-background="new 0 0 30 30" xml:space="preserve">
<path fill="#acacac" d="M20.905,19.685l-3.541-3.605c2.696-3.241,2.527-8.06-0.514-11.1c-1.609-1.611-3.724-2.417-5.834-2.417
   c-2.112,0-4.224,0.806-5.833,2.417c-3.223,3.223-3.223,8.447,0,11.669c1.61,1.611,3.722,2.417,5.833,2.417
   c1.87,0,3.737-0.635,5.257-1.896l3.53,3.595L20.905,19.685z M11.016,17.523c-1.792,0-3.477-0.698-4.743-1.965
   c-1.268-1.268-1.966-2.953-1.966-4.745s0.698-3.477,1.966-4.745c1.266-1.267,2.95-1.964,4.743-1.964s3.478,0.698,4.744,1.965
   c1.269,1.268,1.968,2.952,1.968,4.744s-0.699,3.478-1.969,4.745C14.494,16.825,12.809,17.523,11.016,17.523z"/>
</svg>
