<?xml version="1.0" encoding="iso-8859-1"?>
<!-- Generator: Adobe Illustrator 22.0.1, SVG Export Plug-In . SVG Version: 6.00 Build 0)  -->
<svg version="1.1" id="Layer_1" xmlns="http://www.w3.org/2000/svg" xmlns:xlink="http://www.w3.org/1999/xlink" x="0px" y="0px"
	 viewBox="0 0 30 30" style="enable-background:new 0 0 30 30;" xml:space="preserve">
<g>
	<path style="fill:#FFFFFF;" d="M9.104,24.832c-0.173,0-0.346-0.044-0.5-0.133c-0.311-0.178-0.496-0.498-0.496-0.854v-7.406
		c0-0.356,0.185-0.675,0.496-0.854c0.31-0.179,0.695-0.177,1.005,0.002l6.377,3.703c0.309,0.179,0.493,0.499,0.493,0.853
		c0,0.355-0.185,0.673-0.493,0.852l-6.377,3.703C9.453,24.786,9.279,24.832,9.104,24.832L9.104,24.832z M9.113,16.437l-0.021,7.407
		v0.002l6.397-3.704L9.113,16.437z"/>
	<path style="fill:#FFFFFF;" d="M21.306,29.032H1.801c-0.867,0-1.572-0.705-1.572-1.571V12.879c0-0.866,0.705-1.571,1.572-1.571
		h19.505c0.866,0,1.572,0.705,1.572,1.571V27.46C22.878,28.327,22.172,29.032,21.306,29.032L21.306,29.032z M1.801,12.292
		c-0.323,0-0.587,0.263-0.587,0.586V27.46c0,0.324,0.263,0.587,0.587,0.587h19.505c0.323,0,0.587-0.263,0.587-0.586V12.879
		c0-0.323-0.263-0.586-0.587-0.586H1.801z"/>
	<path style="fill:#FFFFFF;" d="M28.638,28.047c-0.174,0-0.348-0.041-0.511-0.124l-0.028-0.015l-6.206-3.69v-8.097l6.206-3.69
		c0.378-0.195,0.788-0.179,1.125,0.028c0.342,0.21,0.547,0.577,0.547,0.981V26.9c0,0.404-0.204,0.771-0.547,0.981
		C29.043,27.992,28.84,28.047,28.638,28.047L28.638,28.047z M28.584,27.051c0.052,0.022,0.097,0.008,0.126-0.01
		c0.029-0.017,0.076-0.059,0.076-0.141V13.439c0-0.082-0.048-0.124-0.076-0.141c-0.03-0.019-0.078-0.034-0.135-0.006l-5.697,3.388
		v6.978L28.584,27.051z"/>
	<path style="fill:#FFFFFF;" d="M5.645,12.292c-2.444,0-4.431-1.988-4.431-4.431c0-2.443,1.988-4.431,4.431-4.431
		c2.444,0,4.431,1.988,4.431,4.431C10.077,10.304,8.089,12.292,5.645,12.292L5.645,12.292z M5.645,4.415
		c-1.9,0-3.447,1.546-3.447,3.446c0,1.9,1.546,3.447,3.447,3.447c1.9,0,3.447-1.546,3.447-3.447
		C9.092,5.961,7.546,4.415,5.645,4.415L5.645,4.415z"/>
	<path style="fill:#FFFFFF;" d="M14.754,12.292c-3.122,0-5.662-2.54-5.662-5.662s2.54-5.662,5.662-5.662
		c3.122,0,5.662,2.54,5.662,5.662S17.876,12.292,14.754,12.292L14.754,12.292z M14.754,1.953c-2.579,0-4.677,2.099-4.677,4.677
		c0,2.579,2.098,4.677,4.677,4.677c2.579,0,4.677-2.098,4.677-4.677C19.431,4.051,17.333,1.953,14.754,1.953L14.754,1.953z"/>
	<path style="fill:#FFFFFF;" d="M14.754,10.323c-2.036,0-3.693-1.656-3.693-3.693s1.657-3.693,3.693-3.693
		c0.272,0,0.492,0.22,0.492,0.492s-0.22,0.492-0.492,0.492c-1.493,0-2.708,1.215-2.708,2.708c0,1.493,1.215,2.708,2.708,2.708
		c1.493,0,2.708-1.215,2.708-2.708c0-0.272,0.22-0.492,0.492-0.492c0.272,0,0.492,0.22,0.492,0.492
		C18.447,8.666,16.79,10.323,14.754,10.323L14.754,10.323z"/>
	<path style="fill:#FFFFFF;" d="M5.645,10.323c-1.357,0-2.462-1.104-2.462-2.462c0-0.272,0.221-0.492,0.492-0.492
		s0.492,0.22,0.492,0.492c0,0.815,0.663,1.477,1.477,1.477s1.477-0.663,1.477-1.477c0-0.814-0.663-1.477-1.477-1.477
		c-0.272,0-0.492-0.22-0.492-0.492c0-0.272,0.221-0.492,0.492-0.492c1.358,0,2.462,1.104,2.462,2.462
		C8.107,9.218,7.003,10.323,5.645,10.323L5.645,10.323z"/>
</g>
</svg>
